…
5. Pivot the data back so that the dates are data and not column names.


```r
sydneybeaches_wide %>%
  pivot_longer(-date,
    names_to = "site",
    values_to = "enterococci_cfu_100ml"
  )
```

```
## # A tibble: 3,784 × 3
##    date       site                    enterococci_cfu_100ml
##    <chr>      <chr>                                   <dbl>
##  1 02/01/2013 Clovelly Beach                             19
##  2 02/01/2013 Coogee Beach                               15
##  3 02/01/2013 Gordons Bay (East)                         NA
##  4 02/01/2013 Little Bay Beach                            9
##  5 02/01/2013 Malabar Beach                               2
##  6 02/01/2013 Maroubra Beach                              1
##  7 02/01/2013 South Maroubra Beach                        1
##  8 02/01/2013 South Maroubra Rockpool                    12
##  9 02/01/2013 Bondi Beach                                 3
## 10 02/01/2013 Bronte Beach                                4
## # ℹ 3,774 more rows
```

6. We haven't dealt much with dates yet, but separate the date into columns day, month, and year. Do this on the `sydneybeaches_long` data.


```r
sydneybeaches_long %>%
  separate(date, into=c("day", "month", "year"), sep="/")
```

```
## # A tibble: 3,690 × 5
##    site           day   month year  enterococci_cfu_100ml
##    <chr>          <chr> <chr> <chr>                 <dbl>
##  1 Clovelly Beach 02    01    2013                     19
##  2 Clovelly Beach 06    01    2013                      3
##  3 Clovelly Beach 12    01    2013                      2
##  4 Clovelly Beach 18    01    2013                     13
##  5 Clovelly Beach 30    01    2013                      8
##  6 Clovelly Beach 05    02    2013                      7
##  7 Clovelly Beach 11    02    2013                     11
##  8 Clovelly Beach 23    02    2013                     97
##  9 Clovelly Beach 07    03    2013                      3
## 10 Clovelly Beach 25    03    2013                      0
## # ℹ 3,680 more rows
```
…
```r
sydneybeaches_long %>%
  separate(date, into=c("day", "month", "year"), sep="/") %>%
  group_by(year, site) %>%
  summarise(mean_cfu = mean(enterococci_cfu_100ml, na.r = T))
```

```
## `summarise()` has grouped output by 'year'. You can override using the
## `.groups` argument.
```

```
## # A tibble: 66 × 3
## # Groups:   year [6]
##    year  site                    mean_cfu
##    <chr> <chr>                      <dbl>
##  1 2013  Bondi Beach                32.2 
##  2 2013  Bronte Beach               26.8 
##  3 2013  Clovelly Beach              9.28
##  4 2013  Coogee Beach               39.7 
##  5 2013  Gordons Bay (East)         24.8 
##  6 2013  Little Bay Beach          122.  
##  7 2013  Malabar Beach             101.  
##  8 2013  Maroubra Beach             47.1 
##  9 2013  South Maroubra Beach       39.3 
## 10 2013  South Maroubra Rockpool    96.4 
## # ℹ 56 more rows
```
…
