…
```r
colleges %>%
  group_by(CITY, STABBR) %>%
  summarise(average_cost = mean(COSTT4_A, na.rm = T)) %>%
  arrange(desc(average_cost)) # Claremont, CA
```

```
## `summarise()` has grouped output by 'CITY'. You can override using the
## `.groups` argument.
```

```
## # A tibble: 161 × 3
## # Groups:   CITY [161]
##    CITY                STABBR average_cost
##    <chr>               <chr>         <dbl>
##  1 Claremont           CA            66498
##  2 Malibu              CA            66152
##  3 Valencia            CA            64686
##  4 Orange              CA            64501
##  5 Redlands            CA            61542
##  6 Moraga              CA            61095
##  7 Atherton            CA            56035
##  8 Thousand Oaks       CA            54373
##  9 Rancho Palos Verdes CA            50758
## 10 La Verne            CA            50603
## # ℹ 151 more rows
```
…
