…
4. Refocus the data only to include country, isscaap_taxonomic_group, asfis_species_name, asfis_species_number, year, catch.

```r
fisheries_tidy %>%
  select(country, isscaap_taxonomic_group, asfis_species_name, asfis_species_number, year, catch)
```

```
## # A tibble: 376,771 × 6
##    country isscaap_taxonomic_group asfis_species_name asfis_species_number  year
##    <fct>   <chr>                   <chr>              <fct>                <dbl>
##  1 Albania Sharks, rays, chimaeras Squatinidae        10903XXXXX            1995
##  2 Albania Sharks, rays, chimaeras Squatinidae        10903XXXXX            1996
##  3 Albania Sharks, rays, chimaeras Squatinidae        10903XXXXX            1997
##  4 Albania Sharks, rays, chimaeras Squatinidae        10903XXXXX            1998
##  5 Albania Sharks, rays, chimaeras Squatinidae        10903XXXXX            1999
##  6 Albania Sharks, rays, chimaeras Squatinidae        10903XXXXX            2000
##  7 Albania Sharks, rays, chimaeras Squatinidae        10903XXXXX            2001
##  8 Albania Sharks, rays, chimaeras Squatinidae        10903XXXXX            2002
##  9 Albania Sharks, rays, chimaeras Squatinidae        10903XXXXX            2003
## 10 Albania Sharks, rays, chimaeras Squatinidae        10903XXXXX            2004
## # ℹ 376,761 more rows
## # ℹ 1 more variable: catch <dbl>
```
…
6. Which country had the largest overall catch in the year 2000?

```r
fisheries_tidy %>%
  filter(year == 2000) %>%
  arrange(desc(catch))
```

```
## # A tibble: 8,793 × 10
##    country               common_name isscaap_group_number isscaap_taxonomic_gr…¹
##    <fct>                 <chr>       <fct>                <chr>                 
##  1 China                 Marine fis… 39                   Marine fishes not ide…
##  2 Peru                  Anchoveta(… 35                   Herrings, sardines, a…
##  3 Russian Federation    Alaska pol… 32                   Cods, hakes, haddocks 
##  4 Viet Nam              Marine fis… 39                   Marine fishes not ide…
##  5 Chile                 Chilean ja… 37                   Miscellaneous pelagic…
##  6 China                 Marine mol… 58                   Miscellaneous marine …
##  7 China                 Largehead … 34                   Miscellaneous demersa…
##  8 United States of Ame… Alaska pol… 32                   Cods, hakes, haddocks 
##  9 China                 Marine cru… 47                   Miscellaneous marine …
## 10 Philippines           Scads nei   37                   Miscellaneous pelagic…
## # ℹ 8,783 more rows
## # ℹ abbreviated name: ¹​isscaap_taxonomic_group
## # ℹ 6 more variables: asfis_species_number <fct>, asfis_species_name <chr>,
## #   fao_major_fishing_area <fct>, measure <chr>, year <dbl>, catch <dbl>
```

7. Which country caught the most sardines (_Sardina pilchardus_) between the years 1990-2000?

```r
fisheries_tidy %>%
  filter(between(year, 1990, 2000), asfis_species_name == "Sardina pilchardus") %>%
  arrange(desc(catch))
```

```
## # A tibble: 336 × 10
##    country            common_name    isscaap_group_number isscaap_taxonomic_gr…¹
##    <fct>              <chr>          <fct>                <chr>                 
##  1 Morocco            European pilc… 35                   Herrings, sardines, a…
##  2 Morocco            European pilc… 35                   Herrings, sardines, a…
##  3 Spain              European pilc… 35                   Herrings, sardines, a…
##  4 Morocco            European pilc… 35                   Herrings, sardines, a…
##  5 Morocco            European pilc… 35                   Herrings, sardines, a…
##  6 Morocco            European pilc… 35                   Herrings, sardines, a…
##  7 Morocco            European pilc… 35                   Herrings, sardines, a…
##  8 Morocco            European pilc… 35                   Herrings, sardines, a…
##  9 Russian Federation European pilc… 35                   Herrings, sardines, a…
## 10 Russian Federation European pilc… 35                   Herrings, sardines, a…
## # ℹ 326 more rows
## # ℹ abbreviated name: ¹​isscaap_taxonomic_group
## # ℹ 6 more variables: asfis_species_number <fct>, asfis_species_name <chr>,
## #   fao_major_fishing_area <fct>, measure <chr>, year <dbl>, catch <dbl>
```

8. Which five countries caught the most cephalopods between 2008-2012?

```r
fisheries_tidy %>%
  filter(between(year, 2008, 2012), asfis_species_name == "Cephalopoda") %>%
  arrange(desc(catch))
```

```
## # A tibble: 80 × 10
##    country common_name     isscaap_group_number isscaap_taxonomic_group        
##    <fct>   <chr>           <fct>                <chr>                          
##  1 India   Cephalopods nei 57                   Squids, cuttlefishes, octopuses
##  2 India   Cephalopods nei 57                   Squids, cuttlefishes, octopuses
##  3 India   Cephalopods nei 57                   Squids, cuttlefishes, octopuses
##  4 China   Cephalopods nei 57                   Squids, cuttlefishes, octopuses
##  5 China   Cephalopods nei 57                   Squids, cuttlefishes, octopuses
##  6 Italy   Cephalopods nei 57                   Squids, cuttlefishes, octopuses
##  7 India   Cephalopods nei 57                   Squids, cuttlefishes, octopuses
##  8 India   Cephalopods nei 57                   Squids, cuttlefishes, octopuses
##  9 India   Cephalopods nei 57                   Squids, cuttlefishes, octopuses
## 10 Spain   Cephalopods nei 57                   Squids, cuttlefishes, octopuses
## # ℹ 70 more rows
## # ℹ 6 more variables: asfis_species_number <fct>, asfis_species_name <chr>,
## #   fao_major_fishing_area <fct>, measure <chr>, year <dbl>, catch <dbl>
```

9. Which species had the highest catch total between 2008-2012? (hint: Osteichthyes is not a species)

```r
fisheries_tidy %>%
  filter(between(year, 2008, 2012), asfis_species_name != "Osteichthyes") %>%
  arrange(desc(catch))
```

```
## # A tibble: 49,554 × 10
##    country            common_name    isscaap_group_number isscaap_taxonomic_gr…¹
##    <fct>              <chr>          <fct>                <chr>                 
##  1 China              Largehead hai… 34                   Miscellaneous demersa…
##  2 Russian Federation Alaska polloc… 32                   Cods, hakes, haddocks 
##  3 Peru               Anchoveta(=Pe… 35                   Herrings, sardines, a…
##  4 Norway             Atlantic herr… 35                   Herrings, sardines, a…
##  5 Norway             Atlantic herr… 35                   Herrings, sardines, a…
##  6 Peru               Anchoveta(=Pe… 35                   Herrings, sardines, a…
##  7 China              Largehead hai… 34                   Miscellaneous demersa…
##  8 Chile              Anchoveta(=Pe… 35                   Herrings, sardines, a…
##  9 China              Largehead hai… 34                   Miscellaneous demersa…
## 10 Russian Federation Alaska polloc… 32                   Cods, hakes, haddocks 
## # ℹ 49,544 more rows
## # ℹ abbreviated name: ¹​isscaap_taxonomic_group
## # ℹ 6 more variables: asfis_species_number <fct>, asfis_species_name <chr>,
## #   fao_major_fishing_area <fct>, measure <chr>, year <dbl>, catch <dbl>
```

10. Use the data to do at least one analysis of your choice.


```r
fisheries_tidy %>%
  group_by(year) %>%
  summarise(mean_catch = mean(catch, na.rm = T),
            min_catch = min(catch, na.rm = T),
            max_catch = max(catch, na.rm = T))
```

```
## # A tibble: 63 × 4
##     year mean_catch min_catch max_catch
##    <dbl>      <dbl>     <dbl>     <dbl>
##  1  1950       18.6         0       935
##  2  1951       21.1         0      5600
##  3  1952       25.4         0      3800
##  4  1953       20.0         0       900
##  5  1954       24.5         0      1500
##  6  1955       25.4         0      4000
##  7  1956       24.7         0      4500
##  8  1957       20.1         0       998
##  9  1958       21.9         0       994
## 10  1959       24.6         0      6800
## # ℹ 53 more rows
```
…
