…
```
## `summarise()` has grouped output by 'county'. You can override using the
## `.groups` argument.
```

```
## # A tibble: 21 × 5
## # Groups:   county [21]
##    county              minor  none major fatal
##    <chr>               <int> <int> <int> <int>
##  1 San Luis Obispo         1     7     3     3
##  2 Monterey                2     3     8     2
##  3 San Diego               8     9     4     2
##  4 Santa Barbara           6     9     2     2
##  5 Island - San Miguel     2    NA     2     1
##  6 Los Angeles             6     2    NA     1
##  7 Mendocino               1    NA     3     1
##  8 San Francisco          NA     1    NA     1
##  9 San Mateo               4    12     1     1
## 10 Santa Cruz              3     8     3     1
## # ℹ 11 more rows
```
…
