…
2. Notice that we have some neutral superheros! Who are they? List their names below.  


```r
superhero_info %>% filter(alignment == "neutral")
```

```
## # A tibble: 24 × 10
##    name  gender eye_color race  hair_color height publisher skin_color alignment
##    <chr> <chr>  <chr>     <chr> <chr>       <dbl> <chr>     <chr>      <chr>    
##  1 Biza… Male   black     Biza… Black         191 DC Comics white      neutral  
##  2 Blac… Male   <NA>      God … <NA>           NA DC Comics <NA>       neutral  
##  3 Capt… Male   brown     Human Brown          NA DC Comics <NA>       neutral  
##  4 Copy… Female red       Muta… White         183 Marvel C… blue       neutral  
##  5 Dead… Male   brown     Muta… No Hair       188 Marvel C… <NA>       neutral  
##  6 Deat… Male   blue      Human White         193 DC Comics <NA>       neutral  
##  7 Etri… Male   red       Demon No Hair       193 DC Comics yellow     neutral  
##  8 Gala… Male   black     Cosm… Black         876 Marvel C… <NA>       neutral  
##  9 Glad… Male   blue      Stro… Blue          198 Marvel C… purple     neutral  
## 10 Indi… Female <NA>      Alien Purple         NA DC Comics <NA>       neutral  
## # ℹ 14 more rows
## # ℹ 1 more variable: weight <dbl>
```

## `superhero_info`
3. Let's say we are only interested in the variables name, alignment, and "race". How would you isolate these variables from `superhero_info`?


```r
superhero_info %>% select(name, alignment, race)
```

```
## # A tibble: 734 × 3
##    name          alignment race             
##    <chr>         <chr>     <chr>            
##  1 A-Bomb        good      Human            
##  2 Abe Sapien    good      Icthyo Sapien    
##  3 Abin Sur      good      Ungaran          
##  4 Abomination   bad       Human / Radiation
##  5 Abraxas       bad       Cosmic Entity    
##  6 Absorbing Man bad       Human            
##  7 Adam Monroe   good      <NA>             
##  8 Adam Strange  good      Human            
##  9 Agent 13      good      <NA>             
## 10 Agent Bob     good      Human            
## # ℹ 724 more rows
```

## Not Human
4. List all of the superheros that are not human.


```r
superhero_info %>% filter(race != "Human")
```

```
## # A tibble: 222 × 10
##    name  gender eye_color race  hair_color height publisher skin_color alignment
##    <chr> <chr>  <chr>     <chr> <chr>       <dbl> <chr>     <chr>      <chr>    
##  1 Abe … Male   blue      Icth… No Hair       191 Dark Hor… blue       good     
##  2 Abin… Male   blue      Unga… No Hair       185 DC Comics red        good     
##  3 Abom… Male   green     Huma… No Hair       203 Marvel C… <NA>       bad      
##  4 Abra… Male   blue      Cosm… Black          NA Marvel C… <NA>       bad      
##  5 Ajax  Male   brown     Cybo… Black         193 Marvel C… <NA>       bad      
##  6 Alien Male   <NA>      Xeno… No Hair       244 Dark Hor… black      bad      
##  7 Amazo Male   red       Andr… <NA>          257 DC Comics <NA>       bad      
##  8 Angel Male   <NA>      Vamp… <NA>           NA Dark Hor… <NA>       good     
##  9 Ange… Female yellow    Muta… Black         165 Marvel C… <NA>       good     
## 10 Anti… Male   yellow    God … No Hair        61 DC Comics <NA>       bad      
## # ℹ 212 more rows
## # ℹ 1 more variable: weight <dbl>
```

## Good and Evil
5. Let's make two different data frames, one focused on the "good guys" and another focused on the "bad guys".


```r
goodguys <- superhero_info %>%
  filter(alignment == "good")
goodguys
```

```
## # A tibble: 496 × 10
##    name  gender eye_color race  hair_color height publisher skin_color alignment
##    <chr> <chr>  <chr>     <chr> <chr>       <dbl> <chr>     <chr>      <chr>    
##  1 A-Bo… Male   yellow    Human No Hair       203 Marvel C… <NA>       good     
##  2 Abe … Male   blue      Icth… No Hair       191 Dark Hor… blue       good     
##  3 Abin… Male   blue      Unga… No Hair       185 DC Comics red        good     
##  4 Adam… Male   blue      <NA>  Blond          NA NBC - He… <NA>       good     
##  5 Adam… Male   blue      Human Blond         185 DC Comics <NA>       good     
##  6 Agen… Female blue      <NA>  Blond         173 Marvel C… <NA>       good     
##  7 Agen… Male   brown     Human Brown         178 Marvel C… <NA>       good     
##  8 Agen… Male   <NA>      <NA>  <NA>          191 Marvel C… <NA>       good     
##  9 Alan… Male   blue      <NA>  Blond         180 DC Comics <NA>       good     
## 10 Alex… Male   <NA>      <NA>  <NA>           NA NBC - He… <NA>       good     
## # ℹ 486 more rows
## # ℹ 1 more variable: weight <dbl>
```


```r
badguys <- superhero_info %>% filter(alignment == "bad")
badguys
```

```
## # A tibble: 207 × 10
##    name  gender eye_color race  hair_color height publisher skin_color alignment
##    <chr> <chr>  <chr>     <chr> <chr>       <dbl> <chr>     <chr>      <chr>    
##  1 Abom… Male   green     Huma… No Hair       203 Marvel C… <NA>       bad      
##  2 Abra… Male   blue      Cosm… Black          NA Marvel C… <NA>       bad      
##  3 Abso… Male   blue      Human No Hair       193 Marvel C… <NA>       bad      
##  4 Air-… Male   blue      <NA>  White         188 Marvel C… <NA>       bad      
##  5 Ajax  Male   brown     Cybo… Black         193 Marvel C… <NA>       bad      
##  6 Alex… Male   <NA>      Human <NA>           NA Wildstorm <NA>       bad      
##  7 Alien Male   <NA>      Xeno… No Hair       244 Dark Hor… black      bad      
##  8 Amazo Male   red       Andr… <NA>          257 DC Comics <NA>       bad      
##  9 Ammo  Male   brown     Human Black         188 Marvel C… <NA>       bad      
## 10 Ange… Female <NA>      <NA>  <NA>           NA Image Co… <NA>       bad      
## # ℹ 197 more rows
## # ℹ 1 more variable: weight <dbl>
```
…
11. Let's make a new variable that is the ratio of height to weight. Call this variable `height_weight_ratio`.    


```r
superhero_info %>% mutate(height_weight_ratio = height/weight)
```

```
## # A tibble: 734 × 11
##    name  gender eye_color race  hair_color height publisher skin_color alignment
##    <chr> <chr>  <chr>     <chr> <chr>       <dbl> <chr>     <chr>      <chr>    
##  1 A-Bo… Male   yellow    Human No Hair       203 Marvel C… <NA>       good     
##  2 Abe … Male   blue      Icth… No Hair       191 Dark Hor… blue       good     
##  3 Abin… Male   blue      Unga… No Hair       185 DC Comics red        good     
##  4 Abom… Male   green     Huma… No Hair       203 Marvel C… <NA>       bad      
##  5 Abra… Male   blue      Cosm… Black          NA Marvel C… <NA>       bad      
##  6 Abso… Male   blue      Human No Hair       193 Marvel C… <NA>       bad      
##  7 Adam… Male   blue      <NA>  Blond          NA NBC - He… <NA>       good     
##  8 Adam… Male   blue      Human Blond         185 DC Comics <NA>       good     
##  9 Agen… Female blue      <NA>  Blond         173 Marvel C… <NA>       good     
## 10 Agen… Male   brown     Human Brown         178 Marvel C… <NA>       good     
## # ℹ 724 more rows
## # ℹ 2 more variables: weight <dbl>, height_weight_ratio <dbl>
```

12. Who has the highest height to weight ratio?  


```r
superhero_info %>% 
  mutate(height_weight_ratio = height/weight) %>%
  arrange(desc(height_weight_ratio))
```

```
## # A tibble: 734 × 11
##    name  gender eye_color race  hair_color height publisher skin_color alignment
##    <chr> <chr>  <chr>     <chr> <chr>       <dbl> <chr>     <chr>      <chr>    
##  1 Groot Male   yellow    Flor… <NA>          701 Marvel C… <NA>       good     
##  2 Gala… Male   black     Cosm… Black         876 Marvel C… <NA>       neutral  
##  3 Fin … Male   red       Kaka… No Hair       975 Marvel C… green      good     
##  4 Long… Male   blue      Human Blond         188 Marvel C… <NA>       good     
##  5 Jack… Male   blue      Human Brown          71 Dark Hor… <NA>       good     
##  6 Rock… Male   brown     Anim… Brown         122 Marvel C… <NA>       good     
##  7 Dash  Male   blue      Human Blond         122 Dark Hor… <NA>       good     
##  8 Howa… Male   brown     <NA>  Yellow         79 Marvel C… <NA>       good     
##  9 Swarm Male   yellow    Muta… No Hair       196 Marvel C… yellow     bad      
## 10 Yoda  Male   brown     Yoda… White          66 George L… green      good     
## # ℹ 724 more rows
## # ℹ 2 more variables: weight <dbl>, height_weight_ratio <dbl>
```

## `superhero_powers`
Have a quick look at the `superhero_powers` data frame.  


```r
superhero_power
```

```
## # A tibble: 667 × 168
##    hero_names    agility accelerated_healing lantern_power_ring
##    <chr>         <lgl>   <lgl>               <lgl>             
##  1 3-D Man       TRUE    FALSE               FALSE             
##  2 A-Bomb        FALSE   TRUE                FALSE             
##  3 Abe Sapien    TRUE    TRUE                FALSE             
##  4 Abin Sur      FALSE   FALSE               TRUE              
##  5 Abomination   FALSE   TRUE                FALSE             
##  6 Abraxas       FALSE   FALSE               FALSE             
##  7 Absorbing Man FALSE   FALSE               FALSE             
##  8 Adam Monroe   FALSE   TRUE                FALSE             
##  9 Adam Strange  FALSE   FALSE               FALSE             
## 10 Agent Bob     FALSE   FALSE               FALSE             
## # ℹ 657 more rows
## # ℹ 164 more variables: dimensional_awareness <lgl>, cold_resistance <lgl>,
## #   durability <lgl>, stealth <lgl>, energy_absorption <lgl>, flight <lgl>,
## #   danger_sense <lgl>, underwater_breathing <lgl>, marksmanship <lgl>,
## #   weapons_master <lgl>, power_augmentation <lgl>, animal_attributes <lgl>,
## #   longevity <lgl>, intelligence <lgl>, super_strength <lgl>,
## #   cryokinesis <lgl>, telepathy <lgl>, energy_armor <lgl>, …
```

13. How many superheros have a combination of agility, stealth, super_strength, stamina?


```r
superhero_power %>% filter(agility == TRUE & stealth == TRUE & super_strength == TRUE & stamina == TRUE)
```

```
## # A tibble: 40 × 168
##    hero_names  agility accelerated_healing lantern_power_ring
##    <chr>       <lgl>   <lgl>               <lgl>             
##  1 Alex Mercer TRUE    TRUE                FALSE             
##  2 Angel       TRUE    TRUE                FALSE             
##  3 Ant-Man II  TRUE    FALSE               FALSE             
##  4 Aquaman     TRUE    TRUE                FALSE             
##  5 Batman      TRUE    FALSE               FALSE             
##  6 Black Flash TRUE    FALSE               FALSE             
##  7 Black Manta TRUE    FALSE               FALSE             
##  8 Brundlefly  TRUE    FALSE               FALSE             
##  9 Buffy       TRUE    TRUE                FALSE             
## 10 Cable       TRUE    TRUE                FALSE             
## # ℹ 30 more rows
## # ℹ 164 more variables: dimensional_awareness <lgl>, cold_resistance <lgl>,
## #   durability <lgl>, stealth <lgl>, energy_absorption <lgl>, flight <lgl>,
## #   danger_sense <lgl>, underwater_breathing <lgl>, marksmanship <lgl>,
## #   weapons_master <lgl>, power_augmentation <lgl>, animal_attributes <lgl>,
## #   longevity <lgl>, intelligence <lgl>, super_strength <lgl>,
## #   cryokinesis <lgl>, telepathy <lgl>, energy_armor <lgl>, …
```
…
